{"href":"https://api.spotify.com/v1/artists/0GOx72r5AAEKRGQFn3xqXK/albums?offset=0&limit=10&include_groups=album,single,compilation,appears_on","limit":10,"next":"https://api.spotify.com/v1/artists/0GOx72r5AAEKRGQFn3xqXK/albums?offset=10&limit=10&include_groups=album,single,compilation,appears_on","offset":0,"previous":null,"total":162,

"items":[{"album_type":"album","total_tracks":23,"available_markets":["AR","AU","BO","BR","BG","CA","CL","CO","CR","CY","CZ","DO","EC","EE","SV","FR","GR","GT","HN","HK","HU","IS","IE","LV","LT","MY","MT","MX","NZ","NI","PA","PY","PE","PH","PL","PT","SG","SK","ES","TW","TR","UY","US","GB","AD","LI","MC","ID","JP","TH","VN","RO","ZA","PS","IN","BY","KZ","MD","UA","AL","BA","HR","ME","MK","RS","SI","KR","BD","LK","GH","KE","NG","TZ","UG","AG","AM","BS","BB","BZ","BT","BW","BF","CV","DM","FJ","GM","GE","GD","GW","GY","HT","JM","KI","LS","LR","MW","MV","ML","MH","FM","NA","NR","NE","PW","PG","PR","WS","SM","ST","SN","SC","SL","SB","KN","LC","VC","SR","TL","TO","TT","TV","VU","AZ","BN","BI","KH","CM","TD","KM","GQ","SZ","GA","GN","KG","LA","MO","MR","MN","NP","RW","TG","UZ","ZW","BJ","MG","MU","MZ","AO","CI","DJ","ZM","CD","CG","TJ","VE","ET","XK"],"external_urls":{"spotify":"https://open.spotify.com/album/70puiNnXbXIRjGTwj1D83e"},

"href":"https://api.spotify.com/v1/albums/70puiNnXbXIRjGTwj1D83e","id":"70puiNnXbXIRjGTwj1D83e","images":[{"url":"https://i.scdn.co/image/ab67616d0000b273c4992b47ace60d6f192970f3","height":640,"width":640},{"url":"https://i.scdn.co/image/ab67616d00001e02c4992b47ace60d6f192970f3","height":300,"width":300},{"url":"https://i.scdn.co/image/ab67616d00004851c4992b47ace60d6f192970f3","height":64,"width":64}],"name":"LES DERNIÈRES VOLONTÉS DE MOZART (SYMPHONY)","release_date":"2022-12-02","release_date_precision":"day","type":"album","uri":"spotify:album:70puiNnXbXIRjGTwj1D83e","artists":[{"external_urls":{"spotify":"https://open.spotify.com/artist/0GOx72r5AAEKRGQFn3xqXK"},"href":"https://api.spotify.com/v1/artists/0GOx72r5AAEKRGQFn3xqXK","id":"0GOx72r5AAEKRGQFn3xqXK","name":"GIMS","type":"artist","uri":"spotify:artist:0GOx72r5AAEKRGQFn3xqXK"}],"album_group":"album"},{"album_type":"album","total_tracks":32,"available_markets":["AR","AU","BO","BR","BG","CL","CO","CR","CY","CZ","DO","EC","EE","SV","GR","GT","HN","HK","HU","IS","IE","LV","LT","MY","MT","MX","NZ","NI","PA","PY","PE","PH","PL","PT","SG","SK","ES","TW","TR","UY","US","GB","LI","ID","JP","TH","VN","RO","ZA","PS","IN","BY","KZ","MD","UA","AL","BA","HR","ME","MK","RS","SI","KR","BD","LK","GH","KE","NG","TZ","UG","AG","AM","BS","BB","BZ","BT","BW","BF","CV","DM","FJ","GM","GE","GD","GW","GY","HT","JM","KI","LS","LR","MW","MV","ML","MH","FM","NA","NR","NE","PW","PG","PR","WS","SM","ST","SN","SC","SL","SB","KN","LC","VC","SR","TL","TO","TT","TV","VU","AZ","BN","BI","KH","CM","TD","KM","GQ","SZ","GA","GN","KG","LA","MO","MR","MN","NP","RW","TG","UZ","ZW","BJ","MG","MU","MZ","AO","CI","DJ","ZM","CD","CG","TJ","VE","ET","XK"],"external_urls":{"spotify":"https://open.spotify.com/album/0tCOMESQmYFABNuADuXK2l"},

"href":"https://api.spotify.com/v1/albums/0tCOMESQmYFABNuADuXK2l","id":"0tCOMESQmYFABNuADuXK2l","images":[{"url":"https://i.scdn.co/image/ab67616d0000b273b60581a04beca702035d86a2","height":640,"width":640},{"url":"https://i.scdn.co/image/ab67616d00001e02b60581a04beca702035d86a2","height":300,"width":300},{"url":"https://i.scdn.co/image/ab67616d00004851b60581a04beca702035d86a2","height":64,"width":64}],"name":"L'empire de Méroé","release_date":"2021-12-03","release_date_precision":"day","type":"album","uri":"spotify:album:0tCOMESQmYFABNuADuXK2l","artists":[{"external_urls":{"spotify":"https://open.spotify.com/artist/0GOx72r5AAEKRGQFn3xqXK"},"href":"https://api.spotify.com/v1/artists/0GOx72r5AAEKRGQFn3xqXK","id":"0GOx72r5AAEKRGQFn3xqXK","name":"GIMS","type":"artist","uri":"spotify:artist:0GOx72r5AAEKRGQFn3xqXK"}],"album_group":"album"},{"album_type":"album","total_tracks":27,"available_markets":["AR","AU","BO","BR","BG","CL","CO","CR","CY","CZ","DK","DO","EC","EE","SV","GR","GT","HN","HK","HU","IS","IE","LV","LT","MY","MT","MX","NZ","NI","PA","PY","PE","PH","PL","PT","SG","SK","ES","TW","TR","UY","US","GB","LI","ID","JP","TH","VN","RO","ZA","PS","IN","BY","KZ","MD","UA","AL","BA","HR","ME","MK","RS","SI","KR","BD","LK","GH","KE","NG","TZ","UG","AG","AM","BS","BB","BZ","BT","BW","BF","CV","DM","FJ","GM","GE","GD","GW","GY","HT","JM","KI","LS","LR","MW","MV","ML","MH","FM","NA","NR","NE","PW","PG","PR","WS","SM","ST","SN","SC","SL","SB","KN","LC","VC","SR","TL","TO","TT","TV","VU","AZ","BN","BI","KH","CM","TD","KM","GQ","SZ","GA","GN","KG","LA","MO","MR","MN","NP","RW","TG","UZ","ZW","BJ","MG","MU","MZ","AO","CI","DJ","ZM","CD","CG","TJ","VE","ET","XK"],"external_urls":{"spotify":"https://open.spotify.com/album/10BrhVps4lNlCk75szZSIk"},"href":"https://api.spotify.com/v1/albums/10BrhVps4lNlCk75szZSIk","id":"10BrhVps4lNlCk75szZSIk","images":[{"url":"https://i.scdn.co/image/ab67616d0000b2737bb02ff43c9f221d8700a2f0","height":640,"width":640},{"url":"https://i.scdn.co/image/ab67616d00001e027bb02ff43c9f221d8700a2f0","height":300,"width":300},{"url":"https://i.scdn.co/image/ab67616d000048517bb02ff43c9f221d8700a2f0","height":64,"width":64}],"name":"Les vestiges du fleau","release_date":"2021-05-28","release_date_precision":"day","type":"album","uri":"spotify:album:10BrhVps4lNlCk75szZSIk","artists":[{"external_urls":{"spotify":"https://open.spotify.com/artist/0GOx72r5AAEKRGQFn3xqXK"},"href":"https://api.spotify.com/v1/artists/0GOx72r5AAEKRGQFn3xqXK","id":"0GOx72r5AAEKRGQFn3xqXK","name":"GIMS","type":"artist","uri":"spotify:artist:0GOx72r5AAEKRGQFn3xqXK"}],"album_group":"album"},{"album_type":"album","total_tracks":19,"available_markets":["AR","AU","BO","BR","BG","CL","CO","CR","CY","CZ","DK","DO","EC","EE","SV","GR","GT","HN","HK","HU","IS","IE","LV","LT","MY","MT","MX","NZ","NI","PA","PY","PE","PH","PL","PT","SG","SK","ES","TW","TR","UY","US","GB","LI","ID","JP","TH","VN","RO","ZA","PS","IN","BY","KZ","MD","UA","AL","BA","HR","ME","MK","RS","SI","KR","BD","LK","GH","KE","NG","TZ","UG","AG","AM","BS","BB","BZ","BT","BW","BF","CV","DM","FJ","GM","GE","GD","GW","GY","HT","JM","KI","LS","LR","MW","MV","ML","MH","FM","NA","NR","NE","PW","PG","PR","WS","SM","ST","SN","SC","SL","SB","KN","LC","VC","SR","TL","TO","TT","TV","VU","AZ","BN","BI","KH","CM","TD","KM","GQ","SZ","GA","GN","KG","LA","MO","MR","MN","NP","RW","TG","UZ","ZW","BJ","MG","MU","MZ","AO","CI","DJ","ZM","CD","CG","TJ","VE","ET","XK"],"external_urls":{"spotify":"https://open.spotify.com/album/6QAaA6Ky1M7N4IEdd4pAqC"},"href":"https://api.spotify.com/v1/albums/6QAaA6Ky1M7N4IEdd4pAqC","id":"6QAaA6Ky1M7N4IEdd4pAqC","images":[{"url":"https://i.scdn.co/image/ab67616d0000b2730202055b00ad7c5870d44bd5","height":640,"width":640},{"url":"https://i.scdn.co/image/ab67616d00001e020202055b00ad7c5870d44bd5","height":300,"width":300},{"url":"https://i.scdn.co/image/ab67616d000048510202055b00ad7c5870d44bd5","height":64,"width":64}],"name":"Le fléau","release_date":"2021-04-05","release_date_precision":"day","type":"album","uri":"spotify:album:6QAaA6Ky1M7N4IEdd4pAqC","artists":[{"external_urls":{"spotify":"https://open.spotify.com/artist/0GOx72r5AAEKRGQFn3xqXK"},"href":"https://api.spotify.com/v1/artists/0GOx72r5AAEKRGQFn3xqXK","id":"0GOx72r5AAEKRGQFn3xqXK","name":"GIMS","type":"artist","uri":"spotify:artist:0GOx72r5AAEKRGQFn3xqXK"}],"album_group":"album"},{"album_type":"album","total_tracks":55,"available_markets":["AG","AO","AR","BB","BF","BI","BJ","BO","BR","BS","BW","BZ","CD","CG","CI","CL","CM","CO","CR","CV","DJ","DM","DO","EC","ET","GA","GD","GH","GM","GN","GQ","GT","GW","GY","HN","HT","JM","KE","KM","KN","LC","LR","LS","MG","ML","MR","MU","MW","MX","MZ","NA","NE","NG","NI","PA","PE","PR","PY","RW","SC","SL","SN","SR","ST","SV","SZ","TD","TG","TT","TZ","UG","US","UY","VC","VE","ZA","ZM","ZW"],"external_urls":{"spotify":"https://open.spotify.com/album/6ef6p6irHivlojqBC5NBJQ"},"href":"https://api.spotify.com/v1/albums/6ef6p6irHivlojqBC5NBJQ","id":"6ef6p6irHivlojqBC5NBJQ","images":[{"url":"https://i.scdn.co/image/ab67616d0000b2734bebeab344e0ff0de2cee2aa","height":640,"width":640},{"url":"https://i.scdn.co/image/ab67616d00001e024bebeab344e0ff0de2cee2aa","height":300,"width":300},{"url":"https://i.scdn.co/image/ab67616d000048514bebeab344e0ff0de2cee2aa","height":64,"width":64}],"name":"Ceinture noire (Décennie)","release_date":"2019-12-06","release_date_precision":"day","type":"album","uri":"spotify:album:6ef6p6irHivlojqBC5NBJQ","artists":[{"external_urls":{"spotify":"https://open.spotify.com/artist/0GOx72r5AAEKRGQFn3xqXK"},"href":"https://api.spotify.com/v1/artists/0GOx72r5AAEKRGQFn3xqXK","id":"0GOx72r5AAEKRGQFn3xqXK","name":"GIMS","type":"artist","uri":"spotify:artist:0GOx72r5AAEKRGQFn3xqXK"}],"album_group":"album"},{"album_type":"album","total_tracks":52,"available_markets":["AE","AT","BE","BH","BJ","CH","CW","DE","DK","DZ","EE","EG","FI","IQ","IS","IT","JO","KW","LB","LI","LT","LU","LV","LY","MA","MT","NL","NO","OM","PK","PS","QA","SA","SE","SM","TN"],"external_urls":{"spotify":"https://open.spotify.com/album/4fGQ0Wluw5Bt8oN2UPqmFv"},"href":"https://api.spotify.com/v1/albums/4fGQ0Wluw5Bt8oN2UPqmFv","id":"4fGQ0Wluw5Bt8oN2UPqmFv","images":[{"url":"https://i.scdn.co/image/ab67616d0000b273db5ae3548b608eefc17f61fa","height":640,"width":640},{"url":"https://i.scdn.co/image/ab67616d00001e02db5ae3548b608eefc17f61fa","height":300,"width":300},{"url":"https://i.scdn.co/image/ab67616d00004851db5ae3548b608eefc17f61fa","height":64,"width":64}],"name":"Ceinture noire (Transcendance)","release_date":"2019-04-25","release_date_precision":"day","type":"album","uri":"spotify:album:4fGQ0Wluw5Bt8oN2UPqmFv","artists":[{"external_urls":{"spotify":"https://open.spotify.com/artist/0GOx72r5AAEKRGQFn3xqXK"},"href":"https://api.spotify.com/v1/artists/0GOx72r5AAEKRGQFn3xqXK","id":"0GOx72r5AAEKRGQFn3xqXK","name":"GIMS","type":"artist","uri":"spotify:artist:0GOx72r5AAEKRGQFn3xqXK"}],"album_group":"album"},{"album_type":"album","total_tracks":40,"available_markets":["AG","AO","BB","BF","BI","BJ","BS","BW","BZ","CD","CG","CI","CM","CR","CV","DJ","DM","DO","DZ","EG","ET","GA","GD","GH","GM","GN","GQ","GT","GW","HN","HT","JM","KE","KM","KN","LC","LR","LS","LY","MA","MG","ML","MR","MU","MW","MX","MZ","NA","NE","NG","NI","PA","PR","RW","SC","SL","SN","ST","SV","SZ","TD","TG","TN","TZ","UG","US","ZA","ZM","ZW"],"external_urls":{"spotify":"https://open.spotify.com/album/1A8bVeAEqVs7GYfdls22hl"},"href":"https://api.spotify.com/v1/albums/1A8bVeAEqVs7GYfdls22hl","id":"1A8bVeAEqVs7GYfdls22hl","images":[{"url":"https://i.scdn.co/image/ab67616d0000b27353b00338631509f18fb3c48a","height":640,"width":640},{"url":"https://i.scdn.co/image/ab67616d00001e0253b00338631509f18fb3c48a","height":300,"width":300},{"url":"https://i.scdn.co/image/ab67616d0000485153b00338631509f18fb3c48a","height":64,"width":64}],"name":"Ceinture noire","release_date":"2018-03-23","release_date_precision":"day","type":"album","uri":"spotify:album:1A8bVeAEqVs7GYfdls22hl","artists":[{"external_urls":{"spotify":"https://open.spotify.com/artist/0GOx72r5AAEKRGQFn3xqXK"},"href":"https://api.spotify.com/v1/artists/0GOx72r5AAEKRGQFn3xqXK","id":"0GOx72r5AAEKRGQFn3xqXK","name":"GIMS","type":"artist","uri":"spotify:artist:0GOx72r5AAEKRGQFn3xqXK"}],"album_group":"album"},{"album_type":"album","total_tracks":20,"available_markets":["AR","AU","AT","BE","BO","BR","BG","CA","CL","CO","CR","CY","CZ","DK","DO","DE","EC","EE","SV","FI","FR","GR","GT","HN","HK","HU","IS","IE","IT","LV","LT","LU","MY","MT","MX","NL","NZ","NI","NO","PA","PY","PE","PH","PL","PT","SG","SK","ES","SE","CH","TW","TR","UY","US","GB","AD","LI","MC","ID","JP","TH","VN","RO","IL","ZA","SA","AE","BH","QA","OM","KW","EG","MA","DZ","TN","LB","JO","PS","IN","BY","KZ","MD","UA","AL","BA","HR","ME","MK","RS","SI","BD","PK","LK","GH","KE","NG","TZ","UG","AG","AM","BS","BB","BZ","BT","BW","BF","CV","CW","DM","FJ","GM","GE","GD","GW","GY","HT","JM","KI","LS","LR","MW","MV","ML","MH","FM","NA","NR","NE","PW","PG","PR","WS","SM","ST","SN","SC","SL","SB","KN","LC","VC","SR","TL","TO","TT","TV","VU","AZ","BN","BI","KH","CM","TD","KM","GQ","SZ","GA","GN","KG","LA","MO","MR","MN","NP","RW","TG","UZ","ZW","BJ","MG","MU","MZ","AO","CI","DJ","ZM","CD","CG","IQ","LY","TJ","VE","ET","XK"],"external_urls":{"spotify":"https://open.spotify.com/album/5CaOs4jZnKs70jLmQYce7j"},"href":"https://api.spotify.com/v1/albums/5CaOs4jZnKs70jLmQYce7j","id":"5CaOs4jZnKs70jLmQYce7j","images":[{"url":"https://i.scdn.co/image/ab67616d0000b273a5f00deff9a75e229b7936be","height":640,"width":640},{"url":"https://i.scdn.co/image/ab67616d00001e02a5f00deff9a75e229b7936be","height":300,"width":300},{"url":"https://i.scdn.co/image/ab67616d00004851a5f00deff9a75e229b7936be","height":64,"width":64}],"name":"À contrecoeur (Mon coeur avait raison) [Réédition]","release_date":"2016-08-26","release_date_precision":"day","type":"album","uri":"spotify:album:5CaOs4jZnKs70jLmQYce7j","artists":[{"external_urls":{"spotify":"https://open.spotify.com/artist/0GOx72r5AAEKRGQFn3xqXK"},"href":"https://api.spotify.com/v1/artists/0GOx72r5AAEKRGQFn3xqXK","id":"0GOx72r5AAEKRGQFn3xqXK","name":"GIMS","type":"artist","uri":"spotify:artist:0GOx72r5AAEKRGQFn3xqXK"}],"album_group":"album"},{"album_type":"album","total_tracks":26,"available_markets":["AR","AU","AT","BE","BO","BR","BG","CA","CL","CO","CR","CY","CZ","DK","DO","DE","EC","EE","SV","FI","FR","GR","GT","HN","HK","HU","IS","IE","IT","LV","LT","LU","MY","MT","MX","NL","NZ","NI","NO","PA","PY","PE","PH","PL","PT","SG","SK","ES","SE","CH","TW","TR","UY","US","GB","AD","LI","MC","ID","JP","TH","VN","RO","IL","ZA","SA","AE","BH","QA","OM","KW","EG","MA","DZ","TN","LB","JO","PS","IN","BY","KZ","MD","UA","AL","BA","HR","ME","MK","RS","SI","BD","PK","LK","GH","KE","NG","TZ","UG","AG","AM","BS","BB","BZ","BT","BW","BF","CV","CW","DM","FJ","GM","GE","GD","GW","GY","HT","JM","KI","LS","LR","MW","MV","ML","MH","FM","NA","NR","NE","PW","PG","PR","WS","SM","ST","SN","SC","SL","SB","KN","LC","VC","SR","TL","TO","TT","TV","VU","AZ","BN","BI","KH","CM","TD","KM","GQ","SZ","GA","GN","KG","LA","MO","MR","MN","NP","RW","TG","UZ","ZW","BJ","MG","MU","MZ","AO","CI","DJ","ZM","CD","CG","IQ","LY","TJ","VE","ET","XK"],"external_urls":{"spotify":"https://open.spotify.com/album/7pHbcE60DpLAjfT12w1b55"},"href":"https://api.spotify.com/v1/albums/7pHbcE60DpLAjfT12w1b55","id":"7pHbcE60DpLAjfT12w1b55","images":[{"url":"https://i.scdn.co/image/ab67616d0000b2733f8461ee3e57bce8783760cd","height":640,"width":640},{"url":"https://i.scdn.co/image/ab67616d00001e023f8461ee3e57bce8783760cd","height":300,"width":300},{"url":"https://i.scdn.co/image/ab67616d000048513f8461ee3e57bce8783760cd","height":64,"width":64}],"name":"Mon coeur avait raison","release_date":"2015-08-28","release_date_precision":"day","type":"album","uri":"spotify:album:7pHbcE60DpLAjfT12w1b55","artists":[{"external_urls":{"spotify":"https://open.spotify.com/artist/0GOx72r5AAEKRGQFn3xqXK"},"href":"https://api.spotify.com/v1/artists/0GOx72r5AAEKRGQFn3xqXK","id":"0GOx72r5AAEKRGQFn3xqXK","name":"GIMS","type":"artist","uri":"spotify:artist:0GOx72r5AAEKRGQFn3xqXK"}],"album_group":"album"},{"album_type":"album","total_tracks":24,"available_markets":["AR","AU","AT","BE","BO","BR","BG","CA","CL","CO","CR","CY","CZ","DK","DO","DE","EC","EE","SV","FI","FR","GR","GT","HN","HK","HU","IS","IE","IT","LV","LT","LU","MY","MT","MX","NL","NZ","NI","NO","PA","PY","PE","PH","PL","PT","SG","SK","ES","SE","CH","TW","TR","UY","US","GB","AD","LI","MC","ID","JP","TH","VN","RO","IL","ZA","SA","AE","BH","QA","OM","KW","EG","MA","DZ","TN","LB","JO","PS","IN","BY","KZ","MD","UA","AL","BA","HR","ME","MK","RS","SI","BD","PK","LK","GH","KE","NG","TZ","UG","AG","AM","BS","BB","BZ","BT","BW","BF","CV","CW","DM","FJ","GM","GE","GD","GW","GY","HT","JM","KI","LS","LR","MW","MV","ML","MH","FM","NA","NR","NE","PW","PG","PR","WS","SM","ST","SN","SC","SL","SB","KN","LC","VC","SR","TL","TO","TT","TV","VU","AZ","BN","BI","KH","CM","TD","KM","GQ","SZ","GA","GN","KG","LA","MO","MR","MN","NP","RW","TG","UZ","ZW","BJ","MG","MU","MZ","AO","CI","DJ","ZM","CD","CG","IQ","LY","TJ","VE","ET","XK"],"external_urls":{"spotify":"https://open.spotify.com/album/5EU9LqPsBwrhq4Iqx0xMVd"},"href":"https://api.spotify.com/v1/albums/5EU9LqPsBwrhq4Iqx0xMVd","id":"5EU9LqPsBwrhq4Iqx0xMVd","images":[{"url":"https://i.scdn.co/image/ab67616d0000b273596368082712ceff7ae95649","height":640,"width":640},{"url":"https://i.scdn.co/image/ab67616d00001e02596368082712ceff7ae95649","height":300,"width":300},{"url":"https://i.scdn.co/image/ab67616d00004851596368082712ceff7ae95649","height":64,"width":64}],"name":"Subliminal (La face cachée)","release_date":"2013-12-02","release_date_precision":"day","type":"album","uri":"spotify:album:5EU9LqPsBwrhq4Iqx0xMVd","artists":[{"external_urls":{"spotify":"https://open.spotify.com/artist/0GOx72r5AAEKRGQFn3xqXK"},"href":"https://api.spotify.com/v1/artists/0GOx72r5AAEKRGQFn3xqXK","id":"0GOx72r5AAEKRGQFn3xqXK","name":"GIMS","type":"artist","uri":"spotify:artist:0GOx72r5AAEKRGQFn3xqXK"}],"album_group":"album"}]}