{
  "artists" : {
    "href" : "https://api.spotify.com/v1/search?query=gims&type=artist&offset=0&limit=1",
    "items" : [ {
      "external_urls" : {
        "spotify" : "https://open.spotify.com/artist/0GOx72r5AAEKRGQFn3xqXK"
      },
      "followers" : {
        "href" : null,
        "total" : 4702481
      },
      "genres" : [ "french hip hop", "pop urbaine", "r&b francais", "rap conscient" ],
      "href" : "https://api.spotify.com/v1/artists/0GOx72r5AAEKRGQFn3xqXK",
      "id" : "0GOx72r5AAEKRGQFn3xqXK",
      "images" : [ {
        "height" : 640,
        "url" : "https://i.scdn.co/image/ab6761610000e5eb77144f838397a467e807df65",
        "width" : 640
      }, {
        "height" : 320,
        "url" : "https://i.scdn.co/image/ab6761610000517477144f838397a467e807df65",
        "width" : 320
      }, {
        "height" : 160,
        "url" : "https://i.scdn.co/image/ab6761610000f17877144f838397a467e807df65",
        "width" : 160
      } ],
      "name" : "GIMS",
      "popularity" : 79,
      "type" : "artist",
      "uri" : "spotify:artist:0GOx72r5AAEKRGQFn3xqXK"
    } ],
    "limit" : 1,
    "next" : "https://api.spotify.com/v1/search?query=gims&type=artist&offset=1&limit=1",
    "offset" : 0,
    "previous" : null,
    "total" : 100
  }
}